^C:\USERS\RAPHD\ONEDRIVE\DOCUMENTS\CNAM_FIP1\TP_CPP\TP4_\TP4\TP4\MAIN.CPP
C:\USERS\RAPHD\ONEDRIVE\DOCUMENTS\CNAM_FIP1\TP_CPP\TP4_\TP4\TP4\DEBUG\VC142.PDB
C:\USERS\RAPHD\ONEDRIVE\DOCUMENTS\CNAM_FIP1\TP_CPP\TP4_\TP4\TP4\DEBUG\VC142.IDB
^C:\USERS\FANNY\ONEDRIVE\COURS\CNAM\CPP\CPP\TP4_\TP4\TP4\GRILLE.CPP|C:\USERS\FANNY\ONEDRIVE\COURS\CNAM\CPP\CPP\TP4_\TP4\TP4\GRILLEMORPION.CPP|C:\USERS\FANNY\ONEDRIVE\COURS\CNAM\CPP\CPP\TP4_\TP4\TP4\GRILLEPUISSANCE4.CPP|C:\USERS\FANNY\ONEDRIVE\COURS\CNAM\CPP\CPP\TP4_\TP4\TP4\IGRILLEMORPION.CPP|C:\USERS\FANNY\ONEDRIVE\COURS\CNAM\CPP\CPP\TP4_\TP4\TP4\IGRILLEPUISSANCE4.CPP|C:\USERS\FANNY\ONEDRIVE\COURS\CNAM\CPP\CPP\TP4_\TP4\TP4\IJEUMORPION.CPP|C:\USERS\FANNY\ONEDRIVE\COURS\CNAM\CPP\CPP\TP4_\TP4\TP4\IJEUPUISSANCE4.CPP|C:\USERS\FANNY\ONEDRIVE\COURS\CNAM\CPP\CPP\TP4_\TP4\TP4\JEU.CPP|C:\USERS\FANNY\ONEDRIVE\COURS\CNAM\CPP\CPP\TP4_\TP4\TP4\JOUEUR.CPP|C:\USERS\FANNY\ONEDRIVE\COURS\CNAM\CPP\CPP\TP4_\TP4\TP4\MAIN.CPP
C:\USERS\FANNY\ONEDRIVE\COURS\CNAM\CPP\CPP\TP4_\TP4\TP4\DEBUG\VC142.PDB
C:\USERS\FANNY\ONEDRIVE\COURS\CNAM\CPP\CPP\TP4_\TP4\TP4\DEBUG\VC142.IDB
C:\USERS\FANNY\ONEDRIVE\COURS\CNAM\CPP\CPP\TP4_\TP4\TP4\DEBUG\TP4.OBJ
C:\USERS\FANNY\ONEDRIVE\COURS\CNAM\CPP\CPP\TP4_\TP4\TP4\DEBUG\MAIN.OBJ
C:\USERS\FANNY\ONEDRIVE\COURS\CNAM\CPP\CPP\TP4_\TP4\TP4\DEBUG\JOUEUR.OBJ
C:\USERS\FANNY\ONEDRIVE\COURS\CNAM\CPP\CPP\TP4_\TP4\TP4\DEBUG\JEU.OBJ
C:\USERS\FANNY\ONEDRIVE\COURS\CNAM\CPP\CPP\TP4_\TP4\TP4\DEBUG\IJEUPUISSANCE4.OBJ
C:\USERS\FANNY\ONEDRIVE\COURS\CNAM\CPP\CPP\TP4_\TP4\TP4\DEBUG\IJEUMORPION.OBJ
C:\USERS\FANNY\ONEDRIVE\COURS\CNAM\CPP\CPP\TP4_\TP4\TP4\DEBUG\IGRILLEPUISSANCE4.OBJ
C:\USERS\FANNY\ONEDRIVE\COURS\CNAM\CPP\CPP\TP4_\TP4\TP4\DEBUG\IGRILLEMORPION.OBJ
C:\USERS\FANNY\ONEDRIVE\COURS\CNAM\CPP\CPP\TP4_\TP4\TP4\DEBUG\GRILLEPUISSANCE4.OBJ
C:\USERS\FANNY\ONEDRIVE\COURS\CNAM\CPP\CPP\TP4_\TP4\TP4\DEBUG\GRILLEMORPION.OBJ
C:\USERS\FANNY\ONEDRIVE\COURS\CNAM\CPP\CPP\TP4_\TP4\TP4\DEBUG\GRILLE.OBJ
^C:\USERS\FANNY\ONEDRIVE\COURS\CNAM\CPP\CPP\TP4_\TP4\TP4\GRILLE.CPP
C:\USERS\FANNY\ONEDRIVE\COURS\CNAM\CPP\CPP\TP4_\TP4\TP4\DEBUG\VC142.PDB
^C:\USERS\FANNY\ONEDRIVE\COURS\CNAM\CPP\CPP\TP4_\TP4\TP4\GRILLEMORPION.CPP
C:\USERS\FANNY\ONEDRIVE\COURS\CNAM\CPP\CPP\TP4_\TP4\TP4\DEBUG\VC142.PDB
^C:\USERS\FANNY\ONEDRIVE\COURS\CNAM\CPP\CPP\TP4_\TP4\TP4\GRILLEPUISSANCE4.CPP
C:\USERS\FANNY\ONEDRIVE\COURS\CNAM\CPP\CPP\TP4_\TP4\TP4\DEBUG\VC142.PDB
^C:\USERS\FANNY\ONEDRIVE\COURS\CNAM\CPP\CPP\TP4_\TP4\TP4\IGRILLEMORPION.CPP
C:\USERS\FANNY\ONEDRIVE\COURS\CNAM\CPP\CPP\TP4_\TP4\TP4\DEBUG\VC142.PDB
^C:\USERS\FANNY\ONEDRIVE\COURS\CNAM\CPP\CPP\TP4_\TP4\TP4\IGRILLEPUISSANCE4.CPP
C:\USERS\FANNY\ONEDRIVE\COURS\CNAM\CPP\CPP\TP4_\TP4\TP4\DEBUG\VC142.PDB
^C:\USERS\FANNY\ONEDRIVE\COURS\CNAM\CPP\CPP\TP4_\TP4\TP4\JOUEUR.CPP
C:\USERS\FANNY\ONEDRIVE\COURS\CNAM\CPP\CPP\TP4_\TP4\TP4\DEBUG\VC142.PDB
^C:\USERS\FANNY\ONEDRIVE\COURS\CNAM\CPP\CPP\TP4_\TP4\TP4\JEUMORPION.CPP|C:\USERS\FANNY\ONEDRIVE\COURS\CNAM\CPP\CPP\TP4_\TP4\TP4\JEUPUISSANCE4.CPP
C:\USERS\FANNY\ONEDRIVE\COURS\CNAM\CPP\CPP\TP4_\TP4\TP4\DEBUG\VC142.PDB
C:\USERS\FANNY\ONEDRIVE\COURS\CNAM\CPP\CPP\TP4_\TP4\TP4\DEBUG\VC142.IDB
C:\USERS\FANNY\ONEDRIVE\COURS\CNAM\CPP\CPP\TP4_\TP4\TP4\DEBUG\JEUPUISSANCE4.OBJ
C:\USERS\FANNY\ONEDRIVE\COURS\CNAM\CPP\CPP\TP4_\TP4\TP4\DEBUG\JEUMORPION.OBJ
^C:\USERS\FANNY\ONEDRIVE\COURS\CNAM\CPP\CPP\TP4_\TP4\TP4\IJEUMORPION.CPP|C:\USERS\FANNY\ONEDRIVE\COURS\CNAM\CPP\CPP\TP4_\TP4\TP4\IJEUPUISSANCE4.CPP
C:\USERS\FANNY\ONEDRIVE\COURS\CNAM\CPP\CPP\TP4_\TP4\TP4\DEBUG\VC142.PDB
C:\USERS\FANNY\ONEDRIVE\COURS\CNAM\CPP\CPP\TP4_\TP4\TP4\DEBUG\VC142.IDB
C:\USERS\FANNY\ONEDRIVE\COURS\CNAM\CPP\CPP\TP4_\TP4\TP4\DEBUG\IJEUPUISSANCE4.OBJ
C:\USERS\FANNY\ONEDRIVE\COURS\CNAM\CPP\CPP\TP4_\TP4\TP4\DEBUG\IJEUMORPION.OBJ
^C:\USERS\FANNY\ONEDRIVE\COURS\CNAM\CPP\CPP\TP4_\TP4\TP4\IJEUMORPION.CPP|C:\USERS\FANNY\ONEDRIVE\COURS\CNAM\CPP\CPP\TP4_\TP4\TP4\IJEUPUISSANCE4.CPP|C:\USERS\FANNY\ONEDRIVE\COURS\CNAM\CPP\CPP\TP4_\TP4\TP4\JEU.CPP|C:\USERS\FANNY\ONEDRIVE\COURS\CNAM\CPP\CPP\TP4_\TP4\TP4\MAIN.CPP
C:\USERS\FANNY\ONEDRIVE\COURS\CNAM\CPP\CPP\TP4_\TP4\TP4\DEBUG\VC142.PDB
C:\USERS\FANNY\ONEDRIVE\COURS\CNAM\CPP\CPP\TP4_\TP4\TP4\DEBUG\VC142.IDB
C:\USERS\FANNY\ONEDRIVE\COURS\CNAM\CPP\CPP\TP4_\TP4\TP4\DEBUG\MAIN.OBJ
C:\USERS\FANNY\ONEDRIVE\COURS\CNAM\CPP\CPP\TP4_\TP4\TP4\DEBUG\JEU.OBJ
C:\USERS\FANNY\ONEDRIVE\COURS\CNAM\CPP\CPP\TP4_\TP4\TP4\DEBUG\IJEUPUISSANCE4.OBJ
C:\USERS\FANNY\ONEDRIVE\COURS\CNAM\CPP\CPP\TP4_\TP4\TP4\DEBUG\IJEUMORPION.OBJ
^C:\USERS\FANNY\ONEDRIVE\COURS\CNAM\CPP\CPP\TP4_\TP4\TP4\IJEUMORPION.CPP|C:\USERS\FANNY\ONEDRIVE\COURS\CNAM\CPP\CPP\TP4_\TP4\TP4\IJEUPUISSANCE4.CPP|C:\USERS\FANNY\ONEDRIVE\COURS\CNAM\CPP\CPP\TP4_\TP4\TP4\JEU.CPP|C:\USERS\FANNY\ONEDRIVE\COURS\CNAM\CPP\CPP\TP4_\TP4\TP4\JEUMORPION.CPP|C:\USERS\FANNY\ONEDRIVE\COURS\CNAM\CPP\CPP\TP4_\TP4\TP4\JEUPUISSANCE4.CPP|C:\USERS\FANNY\ONEDRIVE\COURS\CNAM\CPP\CPP\TP4_\TP4\TP4\MAIN.CPP
C:\USERS\FANNY\ONEDRIVE\COURS\CNAM\CPP\CPP\TP4_\TP4\TP4\DEBUG\VC142.PDB
C:\USERS\FANNY\ONEDRIVE\COURS\CNAM\CPP\CPP\TP4_\TP4\TP4\DEBUG\VC142.IDB
C:\USERS\FANNY\ONEDRIVE\COURS\CNAM\CPP\CPP\TP4_\TP4\TP4\DEBUG\MAIN.OBJ
C:\USERS\FANNY\ONEDRIVE\COURS\CNAM\CPP\CPP\TP4_\TP4\TP4\DEBUG\JEU.OBJ
^C:\USERS\FANNY\ONEDRIVE\COURS\CNAM\CPP\CPP\TP4_\TP4\TP4\JEU.CPP
C:\USERS\FANNY\ONEDRIVE\COURS\CNAM\CPP\CPP\TP4_\TP4\TP4\DEBUG\JEU.OBJ
^C:\USERS\FANNY\ONEDRIVE\COURS\CNAM\CPP\CPP\TP4_\TP4\TP4\IJEUMORPION.CPP|C:\USERS\FANNY\ONEDRIVE\COURS\CNAM\CPP\CPP\TP4_\TP4\TP4\IJEUPUISSANCE4.CPP|C:\USERS\FANNY\ONEDRIVE\COURS\CNAM\CPP\CPP\TP4_\TP4\TP4\JEUMORPION.CPP|C:\USERS\FANNY\ONEDRIVE\COURS\CNAM\CPP\CPP\TP4_\TP4\TP4\JEUPUISSANCE4.CPP|C:\USERS\FANNY\ONEDRIVE\COURS\CNAM\CPP\CPP\TP4_\TP4\TP4\MAIN.CPP
C:\USERS\FANNY\ONEDRIVE\COURS\CNAM\CPP\CPP\TP4_\TP4\TP4\DEBUG\VC142.PDB
C:\USERS\FANNY\ONEDRIVE\COURS\CNAM\CPP\CPP\TP4_\TP4\TP4\DEBUG\VC142.IDB
C:\USERS\FANNY\ONEDRIVE\COURS\CNAM\CPP\CPP\TP4_\TP4\TP4\DEBUG\MAIN.OBJ
C:\USERS\FANNY\ONEDRIVE\COURS\CNAM\CPP\CPP\TP4_\TP4\TP4\DEBUG\JEUMORPION.OBJ
C:\USERS\FANNY\ONEDRIVE\COURS\CNAM\CPP\CPP\TP4_\TP4\TP4\DEBUG\IJEUMORPION.OBJ
^C:\USERS\FANNY\ONEDRIVE\COURS\CNAM\CPP\CPP\TP4_\TP4\TP4\IJEUMORPION.CPP
C:\USERS\FANNY\ONEDRIVE\COURS\CNAM\CPP\CPP\TP4_\TP4\TP4\DEBUG\IJEUMORPION.OBJ
^C:\USERS\FANNY\ONEDRIVE\COURS\CNAM\CPP\CPP\TP4_\TP4\TP4\IJEUPUISSANCE4.CPP|C:\USERS\FANNY\ONEDRIVE\COURS\CNAM\CPP\CPP\TP4_\TP4\TP4\JEUMORPION.CPP|C:\USERS\FANNY\ONEDRIVE\COURS\CNAM\CPP\CPP\TP4_\TP4\TP4\JEUPUISSANCE4.CPP|C:\USERS\FANNY\ONEDRIVE\COURS\CNAM\CPP\CPP\TP4_\TP4\TP4\MAIN.CPP
C:\USERS\FANNY\ONEDRIVE\COURS\CNAM\CPP\CPP\TP4_\TP4\TP4\DEBUG\VC142.PDB
C:\USERS\FANNY\ONEDRIVE\COURS\CNAM\CPP\CPP\TP4_\TP4\TP4\DEBUG\VC142.IDB
C:\USERS\FANNY\ONEDRIVE\COURS\CNAM\CPP\CPP\TP4_\TP4\TP4\DEBUG\MAIN.OBJ
C:\USERS\FANNY\ONEDRIVE\COURS\CNAM\CPP\CPP\TP4_\TP4\TP4\DEBUG\JEUPUISSANCE4.OBJ
C:\USERS\FANNY\ONEDRIVE\COURS\CNAM\CPP\CPP\TP4_\TP4\TP4\DEBUG\JEUMORPION.OBJ
C:\USERS\FANNY\ONEDRIVE\COURS\CNAM\CPP\CPP\TP4_\TP4\TP4\DEBUG\IJEUPUISSANCE4.OBJ
^C:\USERS\FANNY\ONEDRIVE\COURS\CNAM\CPP\CPP\TP4_\TP4\TP4\IJEUPUISSANCE4.CPP
C:\USERS\FANNY\ONEDRIVE\COURS\CNAM\CPP\CPP\TP4_\TP4\TP4\DEBUG\VC142.PDB
^C:\USERS\FANNY\ONEDRIVE\COURS\CNAM\CPP\CPP\TP4_\TP4\TP4\JEUMORPION.CPP
C:\USERS\FANNY\ONEDRIVE\COURS\CNAM\CPP\CPP\TP4_\TP4\TP4\DEBUG\VC142.PDB
^C:\USERS\FANNY\ONEDRIVE\COURS\CNAM\CPP\CPP\TP4_\TP4\TP4\JEUPUISSANCE4.CPP
C:\USERS\FANNY\ONEDRIVE\COURS\CNAM\CPP\CPP\TP4_\TP4\TP4\DEBUG\VC142.PDB
^C:\USERS\FANNY\ONEDRIVE\COURS\CNAM\CPP\CPP\TP4_\TP4\TP4\MAIN.CPP
C:\USERS\FANNY\ONEDRIVE\COURS\CNAM\CPP\CPP\TP4_\TP4\TP4\DEBUG\VC142.PDB
^C:\USERS\FANNY\ONEDRIVE\COURS\CNAM\CPP\CPP\TP4\TP4\GRILLE.CPP|C:\USERS\FANNY\ONEDRIVE\COURS\CNAM\CPP\CPP\TP4\TP4\GRILLEMORPION.CPP|C:\USERS\FANNY\ONEDRIVE\COURS\CNAM\CPP\CPP\TP4\TP4\GRILLEPUISSANCE4.CPP|C:\USERS\FANNY\ONEDRIVE\COURS\CNAM\CPP\CPP\TP4\TP4\IGRILLEMORPION.CPP|C:\USERS\FANNY\ONEDRIVE\COURS\CNAM\CPP\CPP\TP4\TP4\IGRILLEPUISSANCE4.CPP|C:\USERS\FANNY\ONEDRIVE\COURS\CNAM\CPP\CPP\TP4\TP4\IJEUMORPION.CPP|C:\USERS\FANNY\ONEDRIVE\COURS\CNAM\CPP\CPP\TP4\TP4\IJEUPUISSANCE4.CPP|C:\USERS\FANNY\ONEDRIVE\COURS\CNAM\CPP\CPP\TP4\TP4\JEU.CPP|C:\USERS\FANNY\ONEDRIVE\COURS\CNAM\CPP\CPP\TP4\TP4\JEUMORPION.CPP|C:\USERS\FANNY\ONEDRIVE\COURS\CNAM\CPP\CPP\TP4\TP4\JEUPUISSANCE4.CPP|C:\USERS\FANNY\ONEDRIVE\COURS\CNAM\CPP\CPP\TP4\TP4\JOUEUR.CPP|C:\USERS\FANNY\ONEDRIVE\COURS\CNAM\CPP\CPP\TP4\TP4\MAIN.CPP
C:\USERS\FANNY\ONEDRIVE\COURS\CNAM\CPP\CPP\TP4\TP4\DEBUG\VC142.PDB
C:\USERS\FANNY\ONEDRIVE\COURS\CNAM\CPP\CPP\TP4\TP4\DEBUG\VC142.IDB
C:\USERS\FANNY\ONEDRIVE\COURS\CNAM\CPP\CPP\TP4\TP4\DEBUG\JOUEUR.OBJ
C:\USERS\FANNY\ONEDRIVE\COURS\CNAM\CPP\CPP\TP4\TP4\DEBUG\JEUPUISSANCE4.OBJ
C:\USERS\FANNY\ONEDRIVE\COURS\CNAM\CPP\CPP\TP4\TP4\DEBUG\JEUMORPION.OBJ
C:\USERS\FANNY\ONEDRIVE\COURS\CNAM\CPP\CPP\TP4\TP4\DEBUG\JEU.OBJ
C:\USERS\FANNY\ONEDRIVE\COURS\CNAM\CPP\CPP\TP4\TP4\DEBUG\IJEUPUISSANCE4.OBJ
C:\USERS\FANNY\ONEDRIVE\COURS\CNAM\CPP\CPP\TP4\TP4\DEBUG\IJEUMORPION.OBJ
C:\USERS\FANNY\ONEDRIVE\COURS\CNAM\CPP\CPP\TP4\TP4\DEBUG\IGRILLEPUISSANCE4.OBJ
C:\USERS\FANNY\ONEDRIVE\COURS\CNAM\CPP\CPP\TP4\TP4\DEBUG\IGRILLEMORPION.OBJ
C:\USERS\FANNY\ONEDRIVE\COURS\CNAM\CPP\CPP\TP4\TP4\DEBUG\GRILLEPUISSANCE4.OBJ
C:\USERS\FANNY\ONEDRIVE\COURS\CNAM\CPP\CPP\TP4\TP4\DEBUG\GRILLEMORPION.OBJ
C:\USERS\FANNY\ONEDRIVE\COURS\CNAM\CPP\CPP\TP4\TP4\DEBUG\GRILLE.OBJ
^C:\USERS\FANNY\ONEDRIVE\COURS\CNAM\CPP\CPP\TP4\TP4\GRILLE.CPP
C:\USERS\FANNY\ONEDRIVE\COURS\CNAM\CPP\CPP\TP4\TP4\DEBUG\GRILLE.OBJ
^C:\USERS\FANNY\ONEDRIVE\COURS\CNAM\CPP\CPP\TP4\TP4\GRILLEMORPION.CPP
C:\USERS\FANNY\ONEDRIVE\COURS\CNAM\CPP\CPP\TP4\TP4\DEBUG\GRILLEMORPION.OBJ
^C:\USERS\FANNY\ONEDRIVE\COURS\CNAM\CPP\CPP\TP4\TP4\GRILLEPUISSANCE4.CPP
C:\USERS\FANNY\ONEDRIVE\COURS\CNAM\CPP\CPP\TP4\TP4\DEBUG\GRILLEPUISSANCE4.OBJ
^C:\USERS\FANNY\ONEDRIVE\COURS\CNAM\CPP\CPP\TP4\TP4\IGRILLEMORPION.CPP
C:\USERS\FANNY\ONEDRIVE\COURS\CNAM\CPP\CPP\TP4\TP4\DEBUG\IGRILLEMORPION.OBJ
^C:\USERS\FANNY\ONEDRIVE\COURS\CNAM\CPP\CPP\TP4\TP4\IGRILLEPUISSANCE4.CPP
C:\USERS\FANNY\ONEDRIVE\COURS\CNAM\CPP\CPP\TP4\TP4\DEBUG\IGRILLEPUISSANCE4.OBJ
^C:\USERS\FANNY\ONEDRIVE\COURS\CNAM\CPP\CPP\TP4\TP4\IJEUMORPION.CPP
C:\USERS\FANNY\ONEDRIVE\COURS\CNAM\CPP\CPP\TP4\TP4\DEBUG\IJEUMORPION.OBJ
^C:\USERS\FANNY\ONEDRIVE\COURS\CNAM\CPP\CPP\TP4\TP4\IJEUPUISSANCE4.CPP
C:\USERS\FANNY\ONEDRIVE\COURS\CNAM\CPP\CPP\TP4\TP4\DEBUG\IJEUPUISSANCE4.OBJ
^C:\USERS\FANNY\ONEDRIVE\COURS\CNAM\CPP\CPP\TP4\TP4\JEU.CPP
C:\USERS\FANNY\ONEDRIVE\COURS\CNAM\CPP\CPP\TP4\TP4\DEBUG\JEU.OBJ
^C:\USERS\FANNY\ONEDRIVE\COURS\CNAM\CPP\CPP\TP4\TP4\JEUMORPION.CPP
C:\USERS\FANNY\ONEDRIVE\COURS\CNAM\CPP\CPP\TP4\TP4\DEBUG\JEUMORPION.OBJ
^C:\USERS\FANNY\ONEDRIVE\COURS\CNAM\CPP\CPP\TP4\TP4\JEUPUISSANCE4.CPP
C:\USERS\FANNY\ONEDRIVE\COURS\CNAM\CPP\CPP\TP4\TP4\DEBUG\JEUPUISSANCE4.OBJ
^C:\USERS\FANNY\ONEDRIVE\COURS\CNAM\CPP\CPP\TP4\TP4\JOUEUR.CPP
C:\USERS\FANNY\ONEDRIVE\COURS\CNAM\CPP\CPP\TP4\TP4\DEBUG\JOUEUR.OBJ
^C:\USERS\FANNY\ONEDRIVE\COURS\CNAM\CPP\CPP\TP4\TP4\MAIN.CPP
C:\USERS\FANNY\ONEDRIVE\COURS\CNAM\CPP\CPP\TP4\TP4\DEBUG\VC142.PDB
C:\USERS\FANNY\ONEDRIVE\COURS\CNAM\CPP\CPP\TP4\TP4\DEBUG\VC142.IDB
C:\USERS\FANNY\ONEDRIVE\COURS\CNAM\CPP\CPP\TP4\TP4\DEBUG\MAIN.OBJ
