^C:\USERS\RAPHD\ONEDRIVE\DOCUMENTS\CNAM_FIP1\TP_CPP\TP4_\TP4\TP4\DEBUG\GRILLE.OBJ|C:\USERS\RAPHD\ONEDRIVE\DOCUMENTS\CNAM_FIP1\TP_CPP\TP4_\TP4\TP4\DEBUG\GRILLEMORPION.OBJ|C:\USERS\RAPHD\ONEDRIVE\DOCUMENTS\CNAM_FIP1\TP_CPP\TP4_\TP4\TP4\DEBUG\GRILLEPUISSANCE4.OBJ|C:\USERS\RAPHD\ONEDRIVE\DOCUMENTS\CNAM_FIP1\TP_CPP\TP4_\TP4\TP4\DEBUG\JEU.OBJ|C:\USERS\RAPHD\ONEDRIVE\DOCUMENTS\CNAM_FIP1\TP_CPP\TP4_\TP4\TP4\DEBUG\JOUEUR.OBJ|C:\USERS\RAPHD\ONEDRIVE\DOCUMENTS\CNAM_FIP1\TP_CPP\TP4_\TP4\TP4\DEBUG\MAIN.OBJ|C:\USERS\RAPHD\ONEDRIVE\DOCUMENTS\CNAM_FIP1\TP_CPP\TP4_\TP4\TP4\DEBUG\TP4.OBJ
/OUT:"C:\USERS\RAPHD\ONEDRIVE\DOCUMENTS\CNAM_FIP1\TP_CPP\TP4_\TP4\DEBUG\TP4.EXE" /INCREMENTAL /ILK:"DEBUG\TP4.ILK" /NOLOGO KERNEL32.LIB USER32.LIB GDI32.LIB WINSPOOL.LIB COMDLG32.LIB ADVAPI32.LIB SHELL32.LIB OLE32.LIB OLEAUT32.LIB UUID.LIB ODBC32.LIB ODBCCP32.LIB /MANIFEST /MANIFESTUAC:"level='asInvoker' uiAccess='false'" /manifest:embed /DEBUG /PDB:"C:\USERS\RAPHD\ONEDRIVE\DOCUMENTS\CNAM_FIP1\TP_CPP\TP4_\TP4\DEBUG\TP4.PDB" /SUBSYSTEM:CONSOLE /TLBID:1 /DYNAMICBASE /NXCOMPAT /IMPLIB:"C:\USERS\RAPHD\ONEDRIVE\DOCUMENTS\CNAM_FIP1\TP_CPP\TP4_\TP4\DEBUG\TP4.LIB" /MACHINE:X86 DEBUG\GRILLE.OBJ
DEBUG\GRILLEMORPION.OBJ
DEBUG\GRILLEPUISSANCE4.OBJ
DEBUG\JEU.OBJ
DEBUG\JOUEUR.OBJ
DEBUG\MAIN.OBJ
DEBUG\TP4.OBJ
^C:\USERS\FANNY\ONEDRIVE\COURS\CNAM\CPP\CPP\TP4_\TP4\TP4\DEBUG\GRILLE.OBJ|C:\USERS\FANNY\ONEDRIVE\COURS\CNAM\CPP\CPP\TP4_\TP4\TP4\DEBUG\GRILLEMORPION.OBJ|C:\USERS\FANNY\ONEDRIVE\COURS\CNAM\CPP\CPP\TP4_\TP4\TP4\DEBUG\GRILLEPUISSANCE4.OBJ|C:\USERS\FANNY\ONEDRIVE\COURS\CNAM\CPP\CPP\TP4_\TP4\TP4\DEBUG\IGRILLEMORPION.OBJ|C:\USERS\FANNY\ONEDRIVE\COURS\CNAM\CPP\CPP\TP4_\TP4\TP4\DEBUG\IGRILLEPUISSANCE4.OBJ|C:\USERS\FANNY\ONEDRIVE\COURS\CNAM\CPP\CPP\TP4_\TP4\TP4\DEBUG\IJEUMORPION.OBJ|C:\USERS\FANNY\ONEDRIVE\COURS\CNAM\CPP\CPP\TP4_\TP4\TP4\DEBUG\IJEUPUISSANCE4.OBJ|C:\USERS\FANNY\ONEDRIVE\COURS\CNAM\CPP\CPP\TP4_\TP4\TP4\DEBUG\JEU.OBJ|C:\USERS\FANNY\ONEDRIVE\COURS\CNAM\CPP\CPP\TP4_\TP4\TP4\DEBUG\JEUMORPION.OBJ|C:\USERS\FANNY\ONEDRIVE\COURS\CNAM\CPP\CPP\TP4_\TP4\TP4\DEBUG\JEUPUISSANCE4.OBJ|C:\USERS\FANNY\ONEDRIVE\COURS\CNAM\CPP\CPP\TP4_\TP4\TP4\DEBUG\JOUEUR.OBJ|C:\USERS\FANNY\ONEDRIVE\COURS\CNAM\CPP\CPP\TP4_\TP4\TP4\DEBUG\MAIN.OBJ
/OUT:"C:\USERS\FANNY\ONEDRIVE\COURS\CNAM\CPP\CPP\TP4_\TP4\DEBUG\TP4.EXE" /INCREMENTAL /ILK:"DEBUG\TP4.ILK" /NOLOGO KERNEL32.LIB USER32.LIB GDI32.LIB WINSPOOL.LIB COMDLG32.LIB ADVAPI32.LIB SHELL32.LIB OLE32.LIB OLEAUT32.LIB UUID.LIB ODBC32.LIB ODBCCP32.LIB /MANIFEST /MANIFESTUAC:"level='asInvoker' uiAccess='false'" /manifest:embed /DEBUG /PDB:"C:\USERS\FANNY\ONEDRIVE\COURS\CNAM\CPP\CPP\TP4_\TP4\DEBUG\TP4.PDB" /SUBSYSTEM:CONSOLE /TLBID:1 /DYNAMICBASE /NXCOMPAT /IMPLIB:"C:\USERS\FANNY\ONEDRIVE\COURS\CNAM\CPP\CPP\TP4_\TP4\DEBUG\TP4.LIB" /MACHINE:X86 DEBUG\GRILLE.OBJ
DEBUG\GRILLEMORPION.OBJ
DEBUG\GRILLEPUISSANCE4.OBJ
DEBUG\IGRILLEMORPION.OBJ
DEBUG\IGRILLEPUISSANCE4.OBJ
DEBUG\IJEUMORPION.OBJ
DEBUG\IJEUPUISSANCE4.OBJ
DEBUG\JEU.OBJ
DEBUG\JEUMORPION.OBJ
DEBUG\JEUPUISSANCE4.OBJ
DEBUG\JOUEUR.OBJ
DEBUG\MAIN.OBJ
